2.695000076293945312e+01,2.697999954223632812e+01,2.695000076293945312e+01,2.696999931335449219e+01,8.607800000000000000e+04,0.000000000000000000e+00,0.000000000000000000e+00,0.000000000000000000e+00,0.000000000000000000e+00,0.000000000000000000e+00,0.000000000000000000e+00,0.000000000000000000e+00
2.696999931335449219e+01,2.696999931335449219e+01,2.695000076293945312e+01,2.695999908447265625e+01,1.405470000000000000e+05,0.000000000000000000e+00,0.000000000000000000e+00,0.000000000000000000e+00,0.000000000000000000e+00,0.000000000000000000e+00,0.000000000000000000e+00,0.000000000000000000e+00
2.695000076293945312e+01,2.696999931335449219e+01,2.695000076293945312e+01,2.696999931335449219e+01,2.598370000000000000e+05,0.000000000000000000e+00,0.000000000000000000e+00,0.000000000000000000e+00,0.000000000000000000e+00,0.000000000000000000e+00,0.000000000000000000e+00,0.000000000000000000e+00
2.695999908447265625e+01,2.696999931335449219e+01,2.695000076293945312e+01,2.695000076293945312e+01,1.093430000000000000e+05,0.000000000000000000e+00,0.000000000000000000e+00,0.000000000000000000e+00,0.000000000000000000e+00,0.000000000000000000e+00,0.000000000000000000e+00,0.000000000000000000e+00
2.695000076293945312e+01,2.696999931335449219e+01,2.695000076293945312e+01,2.695000076293945312e+01,2.631750000000000000e+05,0.000000000000000000e+00,0.000000000000000000e+00,0.000000000000000000e+00,0.000000000000000000e+00,0.000000000000000000e+00,0.000000000000000000e+00,0.000000000000000000e+00
2.695000076293945312e+01,2.697500038146972656e+01,2.695000076293945312e+01,2.695999908447265625e+01,4.258050000000000000e+05,0.000000000000000000e+00,0.000000000000000000e+00,0.000000000000000000e+00,0.000000000000000000e+00,0.000000000000000000e+00,0.000000000000000000e+00,0.000000000000000000e+00
2.695999908447265625e+01,2.697999954223632812e+01,2.695999908447265625e+01,2.695999908447265625e+01,7.744100000000000000e+04,0.000000000000000000e+00,0.000000000000000000e+00,0.000000000000000000e+00,0.000000000000000000e+00,0.000000000000000000e+00,0.000000000000000000e+00,0.000000000000000000e+00
2.696999931335449219e+01,2.697999954223632812e+01,2.695999908447265625e+01,2.697999954223632812e+01,2.251470000000000000e+05,0.000000000000000000e+00,0.000000000000000000e+00,0.000000000000000000e+00,0.000000000000000000e+00,0.000000000000000000e+00,0.000000000000000000e+00,0.000000000000000000e+00
2.696999931335449219e+01,2.698999977111816406e+01,2.695999908447265625e+01,2.696999931335449219e+01,8.109800000000000000e+04,0.000000000000000000e+00,0.000000000000000000e+00,6.110800170898437500e+01,4.777410125732421875e+01,0.000000000000000000e+00,0.000000000000000000e+00,0.000000000000000000e+00
2.698999977111816406e+01,2.698999977111816406e+01,2.697999954223632812e+01,2.697999954223632812e+01,1.494700000000000000e+05,0.000000000000000000e+00,0.000000000000000000e+00,7.499849700927734375e+01,6.462680053710937500e+01,0.000000000000000000e+00,0.000000000000000000e+00,0.000000000000000000e+00
2.698999977111816406e+01,2.700000000000000000e+01,2.697999954223632812e+01,2.697999954223632812e+01,1.091050000000000000e+05,0.000000000000000000e+00,0.000000000000000000e+00,5.833229827880859375e+01,6.481289672851562500e+01,0.000000000000000000e+00,0.000000000000000000e+00,0.000000000000000000e+00
2.697999954223632812e+01,2.700000000000000000e+01,2.697999954223632812e+01,2.697999954223632812e+01,1.859340000000000000e+05,0.000000000000000000e+00,0.000000000000000000e+00,5.833399963378906250e+01,6.388830184936523438e+01,0.000000000000000000e+00,0.000000000000000000e+00,0.000000000000000000e+00
